{
   "elementos":[
      {
         "_id":{
            "$oid":"5eee354f0a9ec120b0f131a3"
         },
         "titulo":"P2O5h2o",
         "desc":"H2O",
         "createdAt":{
            "$date":"2020-06-04T22:26:17.275Z"
         },
         "updatedAt":{
            "$date":"2020-06-04T22:26:17.275Z"
         },
         "__v":0
      },
      {
         "_id":{
            "$oid":"5eee354f0a9ec120b0f131a4"
         },
         "titulo":"P2O5cna",
         "desc":"CNA",
         "createdAt":{
            "$date":"2020-06-04T22:26:17.275Z"
         },
         "updatedAt":{
            "$date":"2020-06-04T22:26:17.275Z"
         },
         "__v":0
      },
      {
         "_id":{
            "$oid":"5eee354f0a9ec120b0f131a5"
         },
         "titulo":"P2O5total",
         "desc":"TOTAL",
         "createdAt":{
            "$date":"2020-06-04T22:26:17.275Z"
         },
         "updatedAt":{
            "$date":"2020-06-04T22:26:17.275Z"
         },
         "__v":0
      },
      {
         "_id":{
            "$oid":"5eee354f0a9ec120b0f131a6"
         },
         "titulo":"K2O",
         "desc":"",
         "createdAt":{
            "$date":"2020-06-04T22:26:17.275Z"
         },
         "updatedAt":{
            "$date":"2020-06-04T22:26:17.275Z"
         },
         "__v":0
      },
      {
         "_id":{
            "$oid":"5eee354f0a9ec120b0f131a7"
         },
         "titulo":"Ca",
         "desc":"",
         "createdAt":{
            "$date":"2020-06-04T22:26:17.275Z"
         },
         "updatedAt":{
            "$date":"2020-06-04T22:26:17.275Z"
         },
         "__v":0
      },
      {
         "_id":{
            "$oid":"5eee354f0a9ec120b0f131a8"
         },
         "titulo":"CaO",
         "desc":"",
         "createdAt":{
            "$date":"2020-06-04T22:26:17.275Z"
         },
         "updatedAt":{
            "$date":"2020-06-04T22:26:17.275Z"
         },
         "__v":0
      },
      {
         "_id":{
            "$oid":"5eee354f0a9ec120b0f131a9"
         },
         "titulo":"Mg",
         "desc":"",
         "createdAt":{
            "$date":"2020-06-04T22:26:17.275Z"
         },
         "updatedAt":{
            "$date":"2020-06-04T22:26:17.275Z"
         },
         "__v":0
      },
      {
         "_id":{
            "$oid":"5eee354f0a9ec120b0f131aa"
         },
         "titulo":"MgO",
         "desc":"",
         "createdAt":{
            "$date":"2020-06-04T22:26:17.275Z"
         },
         "updatedAt":{
            "$date":"2020-06-04T22:26:17.275Z"
         },
         "__v":0
      },
      {
         "_id":{
            "$oid":"5eee354f0a9ec120b0f131ab"
         },
         "titulo":"S",
         "desc":"",
         "createdAt":{
            "$date":"2020-06-04T22:26:17.275Z"
         },
         "updatedAt":{
            "$date":"2020-06-04T22:26:17.275Z"
         },
         "__v":0
      },
      {
         "_id":{
            "$oid":"5eee354f0a9ec120b0f131ac"
         },
         "titulo":"B",
         "desc":"",
         "createdAt":{
            "$date":"2020-06-04T22:26:17.275Z"
         },
         "updatedAt":{
            "$date":"2020-06-04T22:26:17.275Z"
         },
         "__v":0
      },
      {
         "_id":{
            "$oid":"5eee354f0a9ec120b0f131ad"
         },
         "titulo":"Co",
         "desc":"",
         "createdAt":{
            "$date":"2020-06-04T22:26:17.275Z"
         },
         "updatedAt":{
            "$date":"2020-06-04T22:26:17.275Z"
         },
         "__v":0
      },
      {
         "_id":{
            "$oid":"5eee354f0a9ec120b0f131ae"
         },
         "titulo":"Cu",
         "desc":"",
         "createdAt":{
            "$date":"2020-06-04T22:26:17.275Z"
         },
         "updatedAt":{
            "$date":"2020-06-04T22:26:17.275Z"
         },
         "__v":0
      },
      {
         "_id":{
            "$oid":"5eee354f0a9ec120b0f131af"
         },
         "titulo":"Mn",
         "desc":"",
         "createdAt":{
            "$date":"2020-06-04T22:26:17.275Z"
         },
         "updatedAt":{
            "$date":"2020-06-04T22:26:17.275Z"
         },
         "__v":0
      },
      {
         "_id":{
            "$oid":"5eee354f0a9ec120b0f131b0"
         },
         "titulo":"Mo",
         "desc":"",
         "createdAt":{
            "$date":"2020-06-04T22:26:17.275Z"
         },
         "updatedAt":{
            "$date":"2020-06-04T22:26:17.275Z"
         },
         "__v":0
      },
      {
         "_id":{
            "$oid":"5eee354f0a9ec120b0f131b1"
         },
         "titulo":"Zn",
         "desc":"",
         "createdAt":{
            "$date":"2020-06-04T22:26:17.275Z"
         },
         "updatedAt":{
            "$date":"2020-06-04T22:26:17.275Z"
         },
         "__v":0
      },
      {
         "_id":{
            "$oid":"5eee354f0a9ec120b0f131b2"
         },
         "titulo":"Fe2O3",
         "desc":"",
         "createdAt":{
            "$date":"2020-06-04T22:26:17.275Z"
         },
         "updatedAt":{
            "$date":"2020-06-04T22:26:17.275Z"
         },
         "__v":0
      },
      {
         "_id":{
            "$oid":"5eee354f0a9ec120b0f131b3"
         },
         "titulo":"Ni",
         "desc":"",
         "createdAt":{
            "$date":"2020-06-04T22:26:17.275Z"
         },
         "updatedAt":{
            "$date":"2020-06-04T22:26:17.275Z"
         },
         "__v":0
      },
      {
         "_id":{
            "$oid":"5eee354f0a9ec120b0f131b4"
         },
         "titulo":"SiO2",
         "desc":"",
         "createdAt":{
            "$date":"2020-06-04T22:26:17.275Z"
         },
         "updatedAt":{
            "$date":"2020-06-04T22:26:17.275Z"
         },
         "__v":0
      },
      {
         "_id":{
            "$oid":"5eee354f0a9ec120b0f131b5"
         },
         "titulo":"TiO2",
         "desc":"",
         "createdAt":{
            "$date":"2020-06-04T22:26:17.275Z"
         },
         "updatedAt":{
            "$date":"2020-06-04T22:26:17.275Z"
         },
         "__v":0
      },
      {
         "_id":{
            "$oid":"5eee354f0a9ec120b0f131b6"
         },
         "titulo":"Na2O",
         "desc":"",
         "createdAt":{
            "$date":"2020-06-04T22:26:17.275Z"
         },
         "updatedAt":{
            "$date":"2020-06-04T22:26:17.275Z"
         },
         "__v":0
      },
      {
         "_id":{
            "$oid":"5eee354f0a9ec120b0f131b7"
         },
         "titulo":"Cl",
         "desc":""
      },
      {
         "_id":{
            "$oid":"5eee354f0a9ec120b0f131b8"
         },
         "titulo":"Al2O3",
         "desc":""
      },
      {
         "_id":{
            "$oid":"5eee354f0a9ec120b0f131b9"
         },
         "titulo":"COT",
         "desc":""
      },
      {
         "_id":{
            "$oid":"5eee35c90a9ec120b0f131ba"
         },
         "titulo":"N",
         "desc":""
      }
   ],
   "substancia":[
      {
         "_id":{
            "$oid":"5eee65870a9ec120b0f131bb"
         },
         "titulo":"URÉIA",
         "desc":"",
         "elementos":[
            {
               "elemento":{
                  "$oid":"5eee35c90a9ec120b0f131ba"
               },
               "quantidade":46
            }
         ],
         "createdAt":{
            "$date":"2020-06-04T22:26:17.275Z"
         },
         "updatedAt":{
            "$date":"2020-06-04T22:26:17.275Z"
         },
         "__v":0
      },
      {
         "_id":{
            "$oid":"5eee65870a9ec120b0f131bc"
         },
         "titulo":"(NH4)2SO4",
         "desc":"",
         "elementos":[
            {
               "elemento":{
                  "$oid":"5eee35c90a9ec120b0f131ba"
               },
               "quantidade":21
            },
            {
               "elemento":{
                  "$oid":"5eee354f0a9ec120b0f131ab"
               },
               "quantidade":24
            }
         ],
         "createdAt":{
            "$date":"2020-06-04T22:26:17.275Z"
         },
         "updatedAt":{
            "$date":"2020-06-04T22:26:17.275Z"
         },
         "__v":0
      },
      {
         "_id":{
            "$oid":"5eee65870a9ec120b0f131bd"
         },
         "titulo":"MAP",
         "desc":"",
         "elementos":[
            {
               "elemento":{
                  "$oid":"5eee35c90a9ec120b0f131ba"
               },
               "quantidade":11
            },
            {
               "elemento":{
                  "$oid":"5eee354f0a9ec120b0f131a3"
               },
               "quantidade":52
            },
            {
               "elemento":{
                  "$oid":"5eee354f0a9ec120b0f131a5"
               },
               "quantidade":53
            }
         ],
         "createdAt":{
            "$date":"2020-06-04T22:26:17.275Z"
         },
         "updatedAt":{
            "$date":"2020-06-04T22:26:17.275Z"
         },
         "__v":0
      },
      {
         "_id":{
            "$oid":"5eee65870a9ec120b0f131be"
         },
         "titulo":"KCl",
         "desc":"",
         "elementos":[
            {
               "elemento":{
                  "$oid":"5eee354f0a9ec120b0f131a6"
               },
               "quantidade":60
            }
         ],
         "createdAt":{
            "$date":"2020-06-04T22:26:17.275Z"
         },
         "updatedAt":{
            "$date":"2020-06-04T22:26:17.275Z"
         },
         "__v":0
      },
      {
         "_id":{
            "$oid":"5eee65870a9ec120b0f131bf"
         },
         "titulo":"H3BO3",
         "desc":"",
         "elementos":[
            {
               "elemento":{
                  "$oid":"5eee354f0a9ec120b0f131ac"
               },
               "quantidade":17
            }
         ],
         "createdAt":{
            "$date":"2020-06-04T22:26:17.275Z"
         },
         "updatedAt":{
            "$date":"2020-06-04T22:26:17.275Z"
         },
         "__v":0
      },
      {
         "_id":{
            "$oid":"5eee65870a9ec120b0f131c0"
         },
         "titulo":"CaCl2",
         "desc":"",
         "elementos":[
            {
               "elemento":{
                  "$oid":"5eee354f0a9ec120b0f131a7"
               },
               "quantidade":35
            },
            {
               "elemento":{
                  "$oid":"5eee354f0a9ec120b0f131b7"
               },
               "quantidade":61.9
            }
         ],
         "createdAt":{
            "$date":"2020-06-04T22:26:17.275Z"
         },
         "updatedAt":{
            "$date":"2020-06-04T22:26:17.275Z"
         },
         "__v":0
      },
      {
         "_id":{
            "$oid":"5eee65870a9ec120b0f131c1"
         },
         "titulo":"CaO+MgO",
         "desc":"",
         "elementos":[
            {
               "elemento":{
                  "$oid":"5eee354f0a9ec120b0f131a7"
               },
               "quantidade":39
            },
            {
               "elemento":{
                  "$oid":"5eee354f0a9ec120b0f131a8"
               },
               "quantidade":55
            },
            {
               "elemento":{
                  "$oid":"5eee354f0a9ec120b0f131a9"
               },
               "quantidade":21
            },
            {
               "elemento":{
                  "$oid":"5eee354f0a9ec120b0f131aa"
               },
               "quantidade":36
            }
         ],
         "createdAt":{
            "$date":"2020-06-04T22:26:17.275Z"
         },
         "updatedAt":{
            "$date":"2020-06-04T22:26:17.275Z"
         },
         "__v":0
      },
      {
         "_id":{
            "$oid":"5eee65870a9ec120b0f131c2"
         },
         "titulo":"CaO",
         "desc":"",
         "elementos":[
            {
               "elemento":{
                  "$oid":"5eee354f0a9ec120b0f131a8"
               },
               "quantidade":60
            },
            {
               "elemento":{
                  "$oid":"5eee354f0a9ec120b0f131aa"
               },
               "quantidade":6
            }
         ],
         "createdAt":{
            "$date":"2020-06-04T22:26:17.275Z"
         },
         "updatedAt":{
            "$date":"2020-06-04T22:26:17.275Z"
         },
         "__v":0
      },
      {
         "_id":{
            "$oid":"5eee65870a9ec120b0f131c3"
         },
         "titulo":"SemNome1",
         "desc":"",
         "elementos":[
            {
               "elemento":{
                  "$oid":"5eee354f0a9ec120b0f131a7"
               },
               "quantidade":20
            },
            {
               "elemento":{
                  "$oid":"5eee354f0a9ec120b0f131a9"
               },
               "quantidade":10
            }
         ],
         "createdAt":{
            "$date":"2020-06-04T22:26:17.275Z"
         },
         "updatedAt":{
            "$date":"2020-06-04T22:26:17.275Z"
         },
         "__v":0
      },
      {
         "_id":{
            "$oid":"5eee65870a9ec120b0f131c4"
         },
         "titulo":"SERPENTINITO",
         "desc":"",
         "elementos":[
            {
               "elemento":{
                  "$oid":"5eee354f0a9ec120b0f131a5"
               },
               "quantidade":0.02
            },
            {
               "elemento":{
                  "$oid":"5eee354f0a9ec120b0f131a6"
               },
               "quantidade":0.05
            },
            {
               "elemento":{
                  "$oid":"5eee354f0a9ec120b0f131a8"
               },
               "quantidade":12
            },
            {
               "elemento":{
                  "$oid":"5eee354f0a9ec120b0f131aa"
               },
               "quantidade":20.8
            },
            {
               "elemento":{
                  "$oid":"5eee354f0a9ec120b0f131b0"
               },
               "quantidade":0.12
            },
            {
               "elemento":{
                  "$oid":"5eee354f0a9ec120b0f131b2"
               },
               "quantidade":6
            },
            {
               "elemento":{
                  "$oid":"5eee354f0a9ec120b0f131b4"
               },
               "quantidade":47
            },
            {
               "elemento":{
                  "$oid":"5eee354f0a9ec120b0f131b5"
               },
               "quantidade":0.42
            },
            {
               "elemento":{
                  "$oid":"5eee354f0a9ec120b0f131b6"
               },
               "quantidade":0.09
            },
            {
               "elemento":{
                  "$oid":"5eee354f0a9ec120b0f131b7"
               },
               "quantidade":5
            },
            {
               "elemento":{
                  "$oid":"5eee354f0a9ec120b0f131b8"
               },
               "quantidade":5
            }
         ],
         "createdAt":{
            "$date":"2020-06-04T22:26:17.275Z"
         },
         "updatedAt":{
            "$date":"2020-06-04T22:26:17.275Z"
         },
         "__v":0
      },
      {
         "_id":{
            "$oid":"5eee65870a9ec120b0f131c5"
         },
         "titulo":"S ELEMENTAR",
         "desc":"",
         "elementos":[
            {
               "elemento":{
                  "$oid":"5eee354f0a9ec120b0f131ab"
               },
               "quantidade":95
            }
         ],
         "createdAt":{
            "$date":"2020-06-04T22:26:17.275Z"
         },
         "updatedAt":{
            "$date":"2020-06-04T22:26:17.275Z"
         },
         "__v":0
      },
      {
         "_id":{
            "$oid":"5eee65870a9ec120b0f131c6"
         },
         "titulo":"GRANULAMAX",
         "desc":"",
         "elementos":[
            {
               "elemento":{
                  "$oid":"5eee354f0a9ec120b0f131ab"
               },
               "quantidade":50
            }
         ],
         "createdAt":{
            "$date":"2020-06-04T22:26:17.275Z"
         },
         "updatedAt":{
            "$date":"2020-06-04T22:26:17.275Z"
         },
         "__v":0
      },
      {
         "_id":{
            "$oid":"5eee65870a9ec120b0f131c7"
         },
         "titulo":"TSP",
         "desc":"",
         "elementos":[
            {
               "elemento":{
                  "$oid":"5eee354f0a9ec120b0f131a5"
               },
               "quantidade":46
            }
         ],
         "createdAt":{
            "$date":"2020-06-04T22:26:17.275Z"
         },
         "updatedAt":{
            "$date":"2020-06-04T22:26:17.275Z"
         },
         "__v":0
      },
      {
         "_id":{
            "$oid":"5eee65870a9ec120b0f131c8"
         },
         "titulo":"FOSFORITA",
         "desc":"",
         "elementos":[
            {
               "elemento":{
                  "$oid":"5eee354f0a9ec120b0f131a5"
               },
               "quantidade":23
            },
            {
               "elemento":{
                  "$oid":"5eee354f0a9ec120b0f131a7"
               },
               "quantidade":14
            },
            {
               "elemento":{
                  "$oid":"5eee354f0a9ec120b0f131a9"
               },
               "quantidade":0
            }
         ],
         "createdAt":{
            "$date":"2020-06-04T22:26:17.275Z"
         },
         "updatedAt":{
            "$date":"2020-06-04T22:26:17.275Z"
         },
         "__v":0
      },
      {
         "_id":{
            "$oid":"5eee65870a9ec120b0f131c9"
         },
         "titulo":"FILITO",
         "desc":"",
         "elementos":[
            {
               "elemento":{
                  "$oid":"5eee354f0a9ec120b0f131a6"
               },
               "quantidade":6
            },
            {
               "elemento":{
                  "$oid":"5eee354f0a9ec120b0f131a7"
               },
               "quantidade":0
            },
            {
               "elemento":{
                  "$oid":"5eee354f0a9ec120b0f131a8"
               },
               "quantidade":3
            },
            {
               "elemento":{
                  "$oid":"5eee354f0a9ec120b0f131a9"
               },
               "quantidade":0.2
            },
            {
               "elemento":{
                  "$oid":"5eee354f0a9ec120b0f131aa"
               },
               "quantidade":0.3
            },
            {
               "elemento":{
                  "$oid":"5eee354f0a9ec120b0f131b2"
               },
               "quantidade":7.89
            },
            {
               "elemento":{
                  "$oid":"5eee354f0a9ec120b0f131b4"
               },
               "quantidade":56.8
            },
            {
               "elemento":{
                  "$oid":"5eee354f0a9ec120b0f131b8"
               },
               "quantidade":24.12
            }
         ],
         "createdAt":{
            "$date":"2020-06-04T22:26:17.275Z"
         },
         "updatedAt":{
            "$date":"2020-06-04T22:26:17.275Z"
         },
         "__v":0
      },
      {
         "_id":{
            "$oid":"5eee65870a9ec120b0f131ca"
         },
         "titulo":"Na2MoO4",
         "desc":"",
         "elementos":[
            {
               "elemento":{
                  "$oid":"5eee354f0a9ec120b0f131b0"
               },
               "quantidade":39
            }
         ],
         "createdAt":{
            "$date":"2020-06-04T22:26:17.275Z"
         },
         "updatedAt":{
            "$date":"2020-06-04T22:26:17.275Z"
         },
         "__v":0
      },
      {
         "_id":{
            "$oid":"5eee65870a9ec120b0f131cb"
         },
         "titulo":"ULEXITA",
         "desc":"",
         "elementos":[
            {
               "elemento":{
                  "$oid":"5eee354f0a9ec120b0f131ac"
               },
               "quantidade":11
            }
         ]
      },
      {
         "_id":{
            "$oid":"5eee65870a9ec120b0f131cc"
         },
         "titulo":"CuSO4",
         "desc":"",
         "elementos":[
            {
               "elemento":{
                  "$oid":"5eee354f0a9ec120b0f131ab"
               },
               "quantidade":11
            },
            {
               "elemento":{
                  "$oid":"5eee354f0a9ec120b0f131ae"
               },
               "quantidade":25
            }
         ],
         "createdAt":{
            "$date":"2020-06-04T22:26:17.275Z"
         },
         "updatedAt":{
            "$date":"2020-06-04T22:26:17.275Z"
         },
         "__v":0
      },
      {
         "_id":{
            "$oid":"5eee65870a9ec120b0f131cd"
         },
         "titulo":"CoSO4",
         "desc":"",
         "elementos":[
            {
               "elemento":{
                  "$oid":"5eee354f0a9ec120b0f131ad"
               },
               "quantidade":20
            }
         ],
         "createdAt":{
            "$date":"2020-06-04T22:26:17.275Z"
         },
         "updatedAt":{
            "$date":"2020-06-04T22:26:17.275Z"
         },
         "__v":0
      },
      {
         "_id":{
            "$oid":"5eee65870a9ec120b0f131ce"
         },
         "titulo":"MgSO4",
         "desc":"",
         "elementos":[
            {
               "elemento":{
                  "$oid":"5eee354f0a9ec120b0f131a9"
               },
               "quantidade":9
            },
            {
               "elemento":{
                  "$oid":"5eee354f0a9ec120b0f131ab"
               },
               "quantidade":11
            }
         ],
         "createdAt":{
            "$date":"2020-06-04T22:26:17.275Z"
         },
         "updatedAt":{
            "$date":"2020-06-04T22:26:17.275Z"
         },
         "__v":0
      },
      {
         "_id":{
            "$oid":"5eee65870a9ec120b0f131cf"
         },
         "titulo":"MgO 50",
         "desc":"",
         "elementos":[
            {
               "elemento":{
                  "$oid":"5eee354f0a9ec120b0f131a9"
               },
               "quantidade":50
            }
         ],
         "createdAt":{
            "$date":"2020-06-04T22:26:17.275Z"
         },
         "updatedAt":{
            "$date":"2020-06-04T22:26:17.275Z"
         },
         "__v":0
      },
      {
         "_id":{
            "$oid":"5eee65870a9ec120b0f131d0"
         },
         "titulo":"MnSO4",
         "desc":"",
         "elementos":[
            {
               "elemento":{
                  "$oid":"5eee354f0a9ec120b0f131ab"
               },
               "quantidade":12
            },
            {
               "elemento":{
                  "$oid":"5eee354f0a9ec120b0f131af"
               },
               "quantidade":21
            }
         ],
         "createdAt":{
            "$date":"2020-06-04T22:26:17.275Z"
         },
         "updatedAt":{
            "$date":"2020-06-04T22:26:17.275Z"
         },
         "__v":0
      },
      {
         "_id":{
            "$oid":"5eee65870a9ec120b0f131d1"
         },
         "titulo":"ZnSO4",
         "desc":"",
         "elementos":[
            {
               "elemento":{
                  "$oid":"5eee354f0a9ec120b0f131ab"
               },
               "quantidade":10
            },
            {
               "elemento":{
                  "$oid":"5eee354f0a9ec120b0f131b1"
               },
               "quantidade":20
            }
         ],
         "createdAt":{
            "$date":"2020-06-04T22:26:17.275Z"
         },
         "updatedAt":{
            "$date":"2020-06-04T22:26:17.275Z"
         },
         "__v":0
      },
      {
         "_id":{
            "$oid":"5eee65870a9ec120b0f131d2"
         },
         "titulo":"BENTONITA",
         "desc":"",
         "elementos":[

         ],
         "createdAt":{
            "$date":"2020-06-04T22:26:17.275Z"
         },
         "updatedAt":{
            "$date":"2020-06-04T22:26:17.275Z"
         },
         "__v":0
      },
      {
         "_id":{
            "$oid":"5eee65870a9ec120b0f131d3"
         },
         "titulo":"CaCO3+MgCO3",
         "desc":"",
         "elementos":[

         ],
         "createdAt":{
            "$date":"2020-06-04T22:26:17.275Z"
         },
         "updatedAt":{
            "$date":"2020-06-04T22:26:17.275Z"
         },
         "__v":0
      }
   ]
}