{
    "Server": {
        "abstracts/router/modulo/ModuloCrudRouter": [
            "extends crud.CrudRouter"
        ],
        "abstracts/service/modulo/ModuloDocumentCrudService": [
            "extends crud.DocumentCrudService",
            "constructor(config)",
            "auth(req, res)",
            "static getInstance(config)"
        ],
        "abstracts/service/modulo/ModuloNestedDocumentCrudService": [
            "extends crud.NestedDocumentCrudService",
            "constructor(config)",
            "auth(req, res)",
            "static getInstance(config)"
        ],
        "abstracts/service/modulo/ModuloReferencedDocumentCrudService": [
            "extends crud.ReferencedDocumentCrudService",
            "constructor(config)",
            "auth(req, res)",
            "static getInstance(config)"
        ],
        "commons/crud/persistence/Persistence": [
            "constructor(persistence, queries)",
            "id(val, isId = true)",
            "aggregate(query)",
            "loadItem(item)",
            "loadQuery(query, params, prev = [])",
            "getPrevQuery(params)",
            "getNextQuery(params)",
            "getFilterQuery(filter, params, prev = [])",
            "getDefaultFilterQuery(filter, params, prev = [])",
            "getPopulateQuery(prevQuery = [])"
        ],
        "commons/crud/persistence/impl/DocumentPersistence": [
            "extends Persistence",
            "constructor(persistence, queries)",
            "create(body)",
            "update(query, body)",
            "remove(query)",
            "find(query, unique)",
            "fetch(query)"
        ],
        "commons/crud/persistence/impl/SubDocumentPersistence": [
            "extends Persistence",
            "constructor( persistence, parentField, childPersistence, queries, doctype)",
            "create(parentId, queryId)",
            "update(parentId, query, child)",
            "remove(parentId, query)",
            "find(parentId, query, unique)",
            "fetch(parentId, query)",
            "fill(parentId, child)",
            "getLastQuery(query, parentField)",
            "getFindQuery(parentId, query)",
            "getFetchQuery(parentId, query)",
            "getFillQuery(parentId, query)"
        ],
        "commons/crud/router/CrudRouter": [
            "constructor(routerConfig)",
            "createRouter()",
            "router()",
            "service()",
            "loadChild(router)",
            "getPrevTasks(action)",
            "getNextTasks(action)",
            "getArray(val)",
            "getTaks(tasks, action)",
            "loadRouter()"
        ],
        "commons/crud/service/CrudService": [
            "constructor(args)",
            "auth(req, res, next)",
            "searchReqParam(req, fieldName)",
            "resolveTask(req, res, next, task, action)",
            "getUrlFilters()",
            "getReqBody(req)",
            "updateBodyWithUrlFilters(body, params)",
            "getPrevCallback(req, res, next, action)",
            "getNextCallback(req, res, next, action, result)"
        ],
        "commons/crud/service/impl/DocumentCrudService": [
            "constructor(args)",
            "create(req, res, next)",
            "createItem(body)",
            "update(req, res, next)",
            "updateItem(_id, body)",
            "remove(req, res, next)",
            "removeItem(_id)",
            "find(req, res, next)",
            "fetch(req, res, next)"
        ],
        "commons/crud/service/impl/NestedDocumentCrudService": [
            "constructor(args)",
            "create(req, res, next)",
            "createItem(_parentId, body)",
            "update(req, res, next)",
            "updateItem(_parentId, _id, body)",
            "remove(req, res, next)",
            "removeItem(_parentId, _id)",
            "find(req, res, next)",
            "fetch(req, res, next)"
        ],
        "commons/crud/utils/CollectionUtils": [
            "static resolveReq(req, model)",
            "static loadConfig(req)",
            "static loadCollectionTaskResponse(task)",
            "static loadCollectionResponse(response)",
            "static getCollectionQuery(config, prev)",
            "static resolveCollectionQuery(query, model)"
        ],
        "commons/traveling-salesman/TravelingSalesman": [
            "static getInstance()",
            "naiveSearch(points, distanceMatrix, config, history)",
            "count(value, total)",
            "checkLimit(count, limit)",
            "checkPrev(point, path)",
            "includes(path, obj)",
            "getDistance(a, b)",
            "getDistanceMatrix(points)",
            "fill(result)",
            "naive(points, pDistanceMatrix, config)",
            "nearestNeighbor(points, pDistanceMatrix, config)",
            "resolve(params)"
        ],
        "commons/ModelWrapper": [
            "constructor(key, schemaFunc, depedencieKeys, collectionName, factory, populate)",
            "init()",
            "loadPopulate(populate, schema)",
            "getAutoPopulate(populate)"
        ],
        "config/Account": [
            "static init()",
            "static createDTO(body)"
        ],
        "config/Auth": [
            "static authenticate(token, cb)"
        ],
        "config/DateUtils": [
            "static stringToDate(param)",
            "static stringToDatetime(param)",
            "static dateToString(param)",
            "static datetimeToString(param)",
            "static replacer(key, value)"
        ],
        "enum/ALGORITIMO_ROTA": [
            "nearestNeighbor",
            "naive"
        ],
        "enum/STATUS_ENTREGA": [
            "PENDENTE",
            "INICIADO",
            "FINALIZADO"
        ],
        "enum/TIPO_COMPROMISSO": [
            "geral",
            "entrega"
        ],
        "enum/TIPO_FORMACAO": [
            "MANUAL",
            "AUTOMATIZADO",
            "INDEFINIDO"
        ],
        "enum/TIPO_FUNCIONARIO_ENTREGA": [
            "VENDEDOR",
            "MOTORISTA"
        ],
        "enum/TIPO_LIMITE_ROTA": [
            "MANUAL",
            "TRANSPORTE",
            "INDEFINIDO"
        ],
        "enum/TIPO_PESSOA": [
            "FISICA",
            "JURIDICA"
        ],
        "enum/TIPO_TOKEN_USUARIO": [
            "RESETAR_SENHA",
            "CONFIRMAR_CONTA"
        ],
        "enum/TIPO_USUARIO": [
            "ADMIN",
            "ADMIN_EMPRESA",
            "FUNCIONARIO"
        ],
        "routes/api/modulo/admin/GrandezaRouter": [
            "extends ModuloCrudRouter",
            "modulo()",
            "service()"
        ],
        "routes/api/modulo/admin/grandeza/UnidadeMedidaRouter": [
            "extends ModuloCrudRouter",
            "modulo()",
            "service()"
        ],
        "routes/api/modulo/admin/EmpresaRouter": [
            "extends ModuloCrudRouter",
            "modulo()",
            "service()"
        ],
        "routes/api/modulo/admin/TipoContatoInfoRouter": [
            "extends ModuloCrudRouter",
            "modulo()",
            "service()"
        ],
        "routes/api/modulo/calendario/CompromissoRouter": [
            "extends ModuloCrudRouter",
            "modulo()",
            "service()"
        ],
        "routes/api/modulo/dados-empresa/EmpresaUsuarioRouter": [
            "extends ModuloCrudRouter",
            "modulo()",
            "service()",
            "loadRouter()"
        ],
        "routes/api/modulo/dados-empresa/EntregaRouter": [
            "extends ModuloCrudRouter",
            "modulo()",
            "service()",
            "loadChild(router)"
        ],
        "routes/api/modulo/dados-empresa/FilialRouter": [
            "extends ModuloCrudRouter",
            "modulo()",
            "service()"
        ],
        "routes/api/modulo/dados-empresa/FuncionarioRouter": [
            "extends ModuloCrudRouter",
            "modulo()",
            "service()"
        ],
        "routes/api/modulo/dados-empresa/ParceiroRouter": [
            "extends ModuloCrudRouter",
            "modulo()",
            "service()"
        ],
        "routes/api/modulo/dados-empresa/ProdutoRouter": [
            "extends ModuloCrudRouter",
            "modulo()",
            "service()"
        ],
        "routes/api/modulo/dados-empresa/VeiculoRouter": [
            "extends ModuloCrudRouter",
            "modulo()",
            "service()"
        ],
        "routes/api/modulo/logistica/EntregaRouter": [
            "extends ModuloCrudRouter",
            "modulo()",
            "service()",
            "loadChild(router)"
        ],
        "services/modulo/dados-empresa/ModuloFilialService": [
            "extends ModuloDocumentCrudService",
            "static getInstance(config)",
            "constructor(config)",
            "modulo()"
        ],
        "services/modulo/dados-empresa/ModuloParceiroService": [
            "extends ModuloDocumentCrudService",
            "static getInstance(config)",
            "constructor(config)",
            "modulo()",
            "create(req, res, next)",
            "update(req, res, next)",
            "remove(req, res, next)"
        ],
        "services/modulo/logistica/ModuloLogisticaEntregaService": [
            "extends ModuloDocumentCrudService",
            "static getInstance(config)",
            "constructor(config)",
            "modulo()",
            "calculoRota(req, res, next)"
        ],
        "services/AuthService": [
            "login(req, res, next)",
            "logout(req, res, next)",
            "getAuthTokenExpiryDate()",
            "getAuthTokenDTO(usuario)",
            "generatePassword()",
            "generateCryptPassword()",
            "cryptPassword(password)",
            "comparePassword(pass, crypt)",
            "accountTypes (req, res, next)",
            "signUp(req, res, next)",
            "confirmAccount (req, res, next)",
            "forgotPassword(req, res, next)",
            "resetPassword(req, res, next)",
            "checkUsername(req, res, next)"
        ],
        "schemas/auth/AuthToken": [
            "validade: Date",
            "usuario: Usuario"
        ],
        "schemas/auth/TokenUsuario": [
            "validade: Date",
            "tipo: String",
            "usuario: Usuario"
        ],
        "schemas/auth/Usuario": [
            "usuario: String",
            "senha: String",
            "apelido: String",
            "tipo: String",
            "status: String"
        ],
        "schemas/calendario/Compromisso": [
            "titulo: String",
            "desc: String",
            "comeco: Date",
            "fim: Date",
            "recursos: Object",
            "diaInteiro: Boolean",
            "tipo: String"
        ],
        "schemas/contato/ContatoInfo": [
            "valor: String",
            "tipo: Array<TipoContatoInfo>"
        ],
        "schemas/contato/Contato": [
            "titulo: String",
            "desc: String",
            "infos: Array<ContatoInfo>"
        ],
        "schemas/contato/TipoContatoInfo": [
            "titulo: String",
            "desc: String",
            "mask: String"
        ],
        "schemas/empresa/DadosEmpresa": [
            "filiais:  Filial",
            "parceiros: Parceiro",
            "veiculos: Veiculo",
            "funcionarios: Funcionario",
            "produtos: Produto",
            "entregas: Entrega"
        ],
        "schemas/empresa/Empresa": [
            "nomeFantasia: String",
            "razaoSocial: String",
            "desc: String",
            "identificacao: String",
            "dados: DadosEmpresa"
        ],
        "schemas/logistica/Entrega": [
            "titulo: String",
            "tipoFormacaoTitulo: String",
            "desc: String",
            "tipoFormacaoDesc: String",
            "data: Date",
            "rota: Rota",
            "status: String",
            "parceiroEntrega: ParceiroEntrega",
            "transporte: Transporte",
            "funcionarios: FuncionarioEntrega",
            "compromisso:  Compromisso"
        ],
        "schemas/logistica/FuncionarioEntrega": [
            "funcionario: Funcionario",
            "tipo: String"
        ],
        "schemas/logistica/ParceiroEntrega": [
            "parceiro: Parceiro",
            "contato: Contato"
        ],
        "schemas/logistica/PontoRota": [
            "titulo: String",
            "desc: String",
            "ordem: Number",
            "distancia: Number",
            "duracao: Number",
            "duracaoComTrafego: Number",
            "distanciaDesc: String",
            "duracaoDesc: String",
            "duracaoComTrafegoDesc: String",
            "localizacao: Localizacao",
            "limite: Limite",
            "anterior: Array<String>",
            "status: String"
        ],
        "schemas/logistica/Rota": [
            "algoritimo: String",
            "distancia: Number",
            "duracao: Number",
            "duracaoComTrafego: Number",
            "calculo: Boolean",
            "pontos: Array<PontoRota>",
            "tipoLimite: String",
            "limite: Limite"
        ],
        "schemas/logistica/Transporte": [
            "veiculo: Veiculo",
            "carreta: Veiculo"
        ],
        "schemas/parceiro/ContatoParceiro": [
            "filial: Filial",
            "contato: Contato"
        ],
        "schemas/parceiro/Parceiro": [
            "titulo: String",
            "desc: String",
            "identificacao: String",
            "tipoPessoa: String",
            "filiais: Array<Filial>",
            "contatos: Array<ContatoParceiro>"
        ],
        "schemas/Filial": [
            "titulo: String",
            "desc: String",
            "localizacao: Localizacao"
        ],
        "schemas/Funcionario": [
            "nome: String",
            "identificacao: String",
            "posicoes: Array<String>",
            "filiais: Array<Filial>",
            "empresa: Empresa"
        ],
        "schemas/Limite": [
            "peso: Number",
            "volume: Number",
            "tara: Number"
        ],
        "schemas/Localizacao": [
            "titulo: String",
            "endereco: String",
            "lat: Number",
            "long: Number",
            "pais: String",
            "estado: String",
            "cidade: String",
            "area: String",
            "codigoPostal: String",
            "numero: String",
            "complemento: String"
        ],
        "schemas/Produto": [
            "titulo: String",
            "desc: String",
            "tipo: String",
            "marca: String",
            "densidade: Number"
        ],
        "schemas/Veiculo": [
            "titulo: String",
            "desc: String",
            "placa: String",
            "marca: String",
            "modelo: String",
            "tipo: String",
            "limite: Limite",
            "autonomo: Boolean",
            "trator: Boolean",
            "compatibilidade: Array<Veiculo>"
        ]
    }
}