[{
  "_id": {
    "$oid": "5f9f3251f19aa04e682542c7"
  },
  "filiais": [
    {
      "$oid": "5f9f73584c29af42f057135d"
    },
    {
      "$oid": "5f9f73d44c29af42f057135f"
    }
  ],
  "parceiros": [],
  "veiculos": [
    {
      "$oid": "5f9f523578df3935dc25feb3"
    },
    {
      "$oid": "5f9f538b78df3935dc25feb8"
    },
    {
      "$oid": "5f9f548d78df3935dc25febd"
    },
    {
      "$oid": "5f9f556878df3935dc25febf"
    },
    {
      "$oid": "5f9f59e678df3935dc25fed1"
    },
    {
      "$oid": "5f9f5a8278df3935dc25fed7"
    }
  ],
  "funcionarios": [
    {
      "$oid": "5f9f60a278df3935dc25fef9"
    },
    {
      "$oid": "5f9f60f778df3935dc25fefa"
    },
    {
      "$oid": "5f9f612078df3935dc25fefb"
    },
    {
      "$oid": "5f9f655c78df3935dc25ff23"
    }
  ],
  "produtos": [
    {
      "$oid": "5f9f402cf19aa04e682542d2"
    },
    {
      "$oid": "5f9f4054f19aa04e682542d3"
    },
    {
      "$oid": "5f9f4074f19aa04e682542d4"
    }
  ],
  "entregas": [],
  "createdAt": {
    "$date": "2020-11-01T22:10:25.174Z"
  },
  "updatedAt": {
    "$date": "2020-11-02T02:49:56.328Z"
  },
  "__v": 0
}]