[{
  "_id": {
    "$oid": "5f9f3251f19aa04e682542c8"
  },
  "nomeFantasia": "Dbr Quimica",
  "razaoSocial": "Dbr Quimica Industria e Comercio de Produtos Quimicos Ltda",
  "desc": "Dbr Química Industria e Comercio de Produtos Químicos Ltda",
  "identificacao": "81.653.479/0001-67",
  "dados": {
    "$oid": "5f9f3251f19aa04e682542c7"
  },
  "createdAt": {
    "$date": "2020-11-01T22:10:25.198Z"
  },
  "updatedAt": {
    "$date": "2020-11-01T22:10:25.198Z"
  },
  "__v": 0
}]